%YAML 1.1
%TAG !u! tag:unity3d.com,2011:
--- !u!114 &11400000
MonoBehaviour:
  m_ObjectHideFlags: 0
  m_PrefabParentObject: {fileID: 0}
  m_PrefabInternal: {fileID: 0}
  m_GameObject: {fileID: 0}
  m_Enabled: 1
  m_EditorHideFlags: 0
  m_Script: {fileID: 11500000, guid: 61f4c0facbd7c6e4789ce760353a8292, type: 3}
  m_Name: Forest_Wave_5
  m_EditorClassIdentifier: 
  GoldReceivedAfterClear: 20
  Groups:
  - _MainEnemyType: 0
    _SecondaryEnemyType: 0
    _MainSpawnCount: 8
    _SecondarySpawnCount: 0
    _IntervalOfSpawns: 1
    _DelayAfterGroup: 5
  - _MainEnemyType: 0
    _SecondaryEnemyType: 0
    _MainSpawnCount: 12
    _SecondarySpawnCount: 0
    _IntervalOfSpawns: 1
    _DelayAfterGroup: 5
  - _MainEnemyType: 0
    _SecondaryEnemyType: 0
    _MainSpawnCount: 15
    _SecondarySpawnCount: 0
    _IntervalOfSpawns: 1
    _DelayAfterGroup: 5
  - _MainEnemyType: 0
    _SecondaryEnemyType: 5
    _MainSpawnCount: 15
    _SecondarySpawnCount: 2
    _IntervalOfSpawns: 1
    _DelayAfterGroup: 5
  - _MainEnemyType: 0
    _SecondaryEnemyType: 5
    _MainSpawnCount: 20
    _SecondarySpawnCount: 3
    _IntervalOfSpawns: 1
    _DelayAfterGroup: 0
