%YAML 1.1
%TAG !u! tag:unity3d.com,2011:
--- !u!114 &11400000
MonoBehaviour:
  m_ObjectHideFlags: 0
  m_PrefabParentObject: {fileID: 0}
  m_PrefabInternal: {fileID: 0}
  m_GameObject: {fileID: 0}
  m_Enabled: 1
  m_EditorHideFlags: 0
  m_Script: {fileID: 11500000, guid: 61f4c0facbd7c6e4789ce760353a8292, type: 3}
  m_Name: Tutorial_1_Wave_5
  m_EditorClassIdentifier: 
  GoldReceivedAfterClear: 25
  Groups:
  - _MainEnemyType: 0
    _SecondaryEnemyType: 1
    _MainSpawnCount: 10
    _SecondarySpawnCount: 0
    _IntervalOfSpawns: 0.5
    _DelayAfterGroup: 6
  - _MainEnemyType: 0
    _SecondaryEnemyType: 0
    _MainSpawnCount: 12
    _SecondarySpawnCount: 0
    _IntervalOfSpawns: 0.5
    _DelayAfterGroup: 6
  - _MainEnemyType: 0
    _SecondaryEnemyType: 3
    _MainSpawnCount: 15
    _SecondarySpawnCount: 0
    _IntervalOfSpawns: 0.5
    _DelayAfterGroup: 0
  - _MainEnemyType: 0
    _SecondaryEnemyType: 3
    _MainSpawnCount: 18
    _SecondarySpawnCount: 0
    _IntervalOfSpawns: 0.5
    _DelayAfterGroup: 0
  - _MainEnemyType: 0
    _SecondaryEnemyType: 1
    _MainSpawnCount: 21
    _SecondarySpawnCount: 1
    _IntervalOfSpawns: 0.5
    _DelayAfterGroup: 0
